<?xml version="1.0" encoding="utf-8"?>
<!-- Generator: Adobe Illustrator 16.0.0, SVG Export Plug-In . SVG Version: 6.00 Build 0)  -->
<!DOCTYPE svg PUBLIC "-//W3C//DTD SVG 1.1//EN" "http://www.w3.org/Graphics/SVG/1.1/DTD/svg11.dtd">
<svg version="1.1" id="Selected_Items" xmlns="http://www.w3.org/2000/svg" xmlns:xlink="http://www.w3.org/1999/xlink" x="0px"
	 y="0px" width="1024px" height="680px" viewBox="0 0 1024 680" enable-background="new 0 0 1024 680" xml:space="preserve">
<path fill-rule="evenodd" clip-rule="evenodd" d="M698.65,326.3l3.5,6.5l5,5.5l3.25,5l4.25,3l-2.5,2.5l-3.75,1.25l-2.25,4.25
	l-2.75,3l0.75,3.75l1.75,4.75l3.25,1.25l5.75,10.75l1.75,4l0.5,3.5l-8.5-0.75l-2.5-2.25l-4.25-0.5l-4.25,0.5l-3.5-1l-2.75-4.25
	l-3.25,1.75l-3.75,0.25l-2.25-4.5l-3.25-1.5l2.25-3.1l3.649-1.101l1.351-3.649l-1.95-3.7l-1.3-0.1l-1.25-3l-2-2.75l-4.7,0.25
	l-7.25,1.75l-5.25,3.25l-4.75,3.75l-6.75,3l3.25-10.75l2.75-2l3-5l2.25-2.75l-1.75-4.75l-7,0.5l-5,5.75l-9,4.5l-1.5,4.25l-3.25,2
	l-3.5-0.75l-6.25,0.5l-2,4l-0.25,4l2.5,4.25l7.75,0.75v4.5l-1.25,4l2.25,3l5.75-0.25l5.5-5.5l5.5-0.25l2.75,1.5l3.75,1.5l10.25-1
	l-2.75,3.5l-1.25,3.25l-3.25,1.75l-9.25,2.75l-2.25,4.25l-3,2.5l-4.75,2.5l-3.75,4.5l-3.5,5l1.75,3l5.5,3.5l5.75,8.75l0.75,7.25
	l5.05,5.05l3.65,3.149l-10.7,1.9l5,1.65l4.5,3.25l2.75,4.75l-1.75,4l-5.75,1.5l-4.5,4.5l6.25-0.25l2.25,2l0.25,3.75l-2,4l-2.75,4.25
	l-0.25,3.25l-2,4.5l-5.5,1.75l-3.5,2.5l-5.25,6.5l-2.5,5.25l-3.5,4.25l-4,2.75l-2.75,5.199l-4.75,2.75l-5.75,5.5l-5,3.75
	l-13.75,8.25l-4.75,1.5l-3.75,3h-8.25l-13.25,2.25l-5.25,1.5l-6.75,0.5l-3.25,3l-9.5-0.5h-9.5l-6,0.75l-0.5,3l0.55,0.5h0.025
	l1.925,1.75l-3,4l6.55,2.15l-1,3l-5.25,2l-1.5,3.75l-7.25,5.75L500,567.5l-2.75-5l2.75-7.25l9.5-2.75l4.75-3.25l0.125-2.125
	c0.045,0.001,0.087,0.001,0.125,0l0.95-5.025l-2.75-3.5l-5.5-0.5l-8.25-2.5l-5,1.25l-2.75,1.5l-3.75,0.051l-9.85,5.75l-5.5,7
	l0.5,8.5l3.5,7.5l-1.5,7l-3.25-7.051l-4.25-7.5l-3.25-9.5l3.75-11.5l-0.75-9l-9.5-14.75l-7-0.25l-4-8.449l-4.5,1.25l-3.75,2.5
	l-1.75,6.5l-3.25,4.25l-3.5-3.5l-1-4.25l-6,1.25l-3.75-2.25l-1.75-8l-4.5-1.25l-5.75-1l0.5-11.25l1.25-5l2.5-3.75l-0.75-4.25l-2-3
	l-7.25,2.25l-5.25-0.5l-1.5-6.5L390.6,458.1l-0.5-24.75l3.5-5.5l4-3l1.75,3.5l6.9,3.4l0.25-2.65l0.85-4.25l2.75-1.1l3.5-5.4l2.4-1.1
	l-0.25,2.1l2,0.15l0.35,4.35l3.75-2l2.5,2.25l4.5,5l4.25,16.301l5-10.301l10-3.5l-2.5-9l5-8l7.5,0.5l9.5-3l4-4.5l2.5-12l6.05-9
	l6-0.5l5.5-3l-1.5-11l-4-8.5l-15.55-20v-6l3-10.5l9.05,4l7,2v-6.5l-13.55-5.5l-6-5l-5-3.5l-3.5-6l-2-8.5l-8.5-0.5l-8-6l-7.5-4.5
	l-6.5-2.5l-24.5-6l-7.5-0.5l-5.5-3.05l-6,1l-7.5,0.5l3,5.55l6,4.5l-1,5.2l-8.75,2.5l0.5,3.25l-9.25,4.25l-5,0.75l-4-3.25l-3.75-3.75
	l-11-0.45l-8.75-7.75h-4l-6.75-2l-5.75,1.25l-6-2.75l-4.25-3.75l-3.75-1l-5.75,3l-2.75-3l-3.75-2.25l-6.75,0.75l-3.5,3l-2.25,3.5
	l-2.25,2l-5.25-1.5l-2.55-2.5l-1-4.5l0.5-8l-4-3l-3.5-1.75l-3.5-2.5l-3.5-3.5l3.25-2.25l-5.75-3.55l-10,0.25l-6.75,0.75l-4.25-3
	l-0.25-5.25l3-1.5l-0.75-4l5-4.25l6.5-4.25l1.25-6.75l-2.75-2l-9.5-0.25l-1-3.5l1.25-3.75l3.25-3.25l6.25-4.5l5.25-0.5l11.25-4.5
	l6.25-4.75l4.5-5.5l1.55,4l-1.25,4.5l4.75,6.75l4.75,2.5l15.75-0.75l5.75,2.75l10.75-0.25l13,0.5l3.05,0.4
	c2.1,0.333,3.417,0.7,3.95,1.1c0.5,0.4,2.517,1.3,6.05,2.7c3.934,1.6,6,2.45,6.2,2.55c1,0.5,6.167,2.167,15.5,5l12,0.5l7.75-2
	l7.75-7.5l4.75-5.75l1.75-3.45l21.5,10.2l12.5,6.75l10.75,4c0.833,0.333,3.583,1.667,8.25,4l4.75,7.5l0.75,8.25l-8.75,7.5l4,6.3
	l4.75,3l5.5,0.75l21.8-0.5l10,2.25l2.05,2.8c1.367,1.934,2.1,3.167,2.2,3.7c0.167,0.833,0.167,2.833,0,6l-4.5,10.45l-12.75,1
	l-4.8,5.75l-0.5,5.3l3.5,6l3.55,2.25l1.5,2.75l5.75,1.25l5.5-6l5.25-1.5l2.25,2l2.5,3.5l2.25,6.7l1,1.85c0.667,1.4,1,2.467,1,3.2
	c0,1.167,0.083,2.833,0.25,5l5.75,1.25h3.5l4.25,1.2l4,5.25l7.75,12.75l0.25,5l-0.25,5l4.75-8.25l3.25-8.25l6-8.25l-1.25-4.5
	l-0.5-5.75l-3.5-3.25l-10.25-4l-4-0.25l-3.75-1.75l1.75-3.5l5-2l4-4.5l6-1.75l6.25,2.5l5.75,3.5l1,3l5.25,0.75l10.5,5h4.5l8.5,5.5
	l3.75-7l2.5-1.75l14.75,2.25l6,2l4-1l17.25-1.5l3.25,1l8.55,0.75l8.45,1.25l4.5,4.75l9,1.5l10-0.25l5.5-2.25l13.25,2L698.65,326.3z
	 M636,510.5l4-0.5l4,5.75l-4.5,4.5l-1.25,8.5L632,536.5l-4,2.75l0.5,5.25l-3.75,2.25l-2.75-6l-1-12.25l7.25-10L636,510.5z"/>
</svg>
