<?xml version="1.0" encoding="utf-8"?>
<!-- Generator: Adobe Illustrator 16.0.0, SVG Export Plug-In . SVG Version: 6.00 Build 0)  -->
<!DOCTYPE svg PUBLIC "-//W3C//DTD SVG 1.1//EN" "http://www.w3.org/Graphics/SVG/1.1/DTD/svg11.dtd">
<svg version="1.1" id="Selected_Items" xmlns="http://www.w3.org/2000/svg" xmlns:xlink="http://www.w3.org/1999/xlink" x="0px"
	 y="0px" width="1024px" height="680px" viewBox="0 0 1024 680" enable-background="new 0 0 1024 680" xml:space="preserve">
<path fill-rule="evenodd" clip-rule="evenodd" d="M664,332l5.5,1.5l6.75-1.5l2.5-5l4.5-0.5l-3,17l2.75,6l6.5,6l8.25-2.75l5-4.25
	l1.4,12.55l1.75,4.75l3.25,1.25l5.75,10.75l1.75,4l0.5,3.5l-8.5-0.75l-2.5-2.25l-4.25-0.5l-4.25,0.5l-3.5-1l-2.75-4.25l-3.25,1.75
	l-3.75,0.25l-2.25-4.5l-3.25-1.5l2.25-3.1l3.649-1.101l1.351-3.649l-1.95-3.7l-1.3-0.1l-1.25-3l-2-2.75l-4.7,0.25l-7.25,1.75
	l-5.25,3.25l-4.75,3.75l-6.75,3l3.25-10.75l2.75-2l3-5l2.25-2.75l-1.75-4.75l-7,0.5l-5,5.75l-9,4.5l-1.5,4.25l-3.25,2l-3.5-0.75
	l-6.25,0.5l-2,4l-0.25,4l2.5,4.25l7.75,0.75v4.5l-1.25,4l2.25,3l5.75-0.25l5.5-5.5l5.5-0.25l2.75,1.5l3.75,1.5l10.25-1l-2.75,3.5
	l-1.25,3.25l-3.25,1.75l-9.25,2.75l-2.25,4.25l-3,2.5l-4.75,2.5l-3.75,4.5l-3.5,5l1.75,3l5.5,3.5l5.75,8.75l0.75,7.25l5.05,5.05
	l3.65,3.149l-10.7,1.9l5,1.65l4.5,3.25l2.75,4.75l-1.75,4l-5.75,1.5l-4.5,4.5l6.25-0.25l2.25,2l0.25,3.75l-2,4l-2.75,4.25
	l-0.25,3.25l-2,4.5l-5.5,1.75l-3.5,2.5l-5.25,6.5l-2.5,5.25l-3.5,4.25l-4,2.75l-2.75,5.199l-4.75,2.75l-5.75,5.5l-5,3.75
	l-13.75,8.25l-4.75,1.5l-3.75,3h-8.25l-13.25,2.25l-5.25,1.5l-6.75,0.5l-3.25,3l-9.5-0.5h-9.5l-6,0.75l-0.5,3l0.55,0.5h0.025
	l1.925,1.75l-3,4l6.55,2.15l-1,3l-5.25,2l-1.5,3.75l-7.25,5.75L500,567.5l-2.75-5l2.75-7.25l9.5-2.75l4.75-3.25l0.125-2.125
	c0.045,0.001,0.087,0.001,0.125,0l0.95-5.025l-2.75-3.5l-5.5-0.5l-8.25-2.5l-5,1.25l-2.75,1.5l-3.75,0.051l-9.85,5.75l-5.5,7
	l0.5,8.5l3.5,7.5l-1.5,7l-3.25-7.051l-4.25-7.5l-3.25-9.5l3.75-11.5l-0.5-6.1L461,528l-5,4l-4-8.5l-6.5-1l-4,6.5l1,6l-7-3.5l1-7
	l-6.5,3l-5.25-1.25l0.25-5.5l-10-1l-1-7.75l1.75-7.5l4.75-3.5l-5-4.75l-4.5,1l-1,3l-7.25-5.5l-2-14l-1-17.25l2.5-9l5.75-1.25l5,2.5
	l2-6l4-1.5l2.5-3.5l1.5-3l3.75,3l1.25,3l6,2.75l4.5,5l0.25,7l0.75,3.5l7.25-8.75l10.5-5.5l-3-5.25l2.5-6.25l8-1.75l12.5-9.75
	l2.75-7.5l3-12.75l6.5-9L494,383l-11.5-14l-6.5-10l9-3h7.5L481,343.5l-11.5-10L463,329l-8.5-7l-9-1.5L432,320l-14.5-3l-22.5-0.5
	l-7,3l5,9.5l-5.5,8.5l-9,8l-5.5,2.25l-9-3.5l0.5-4.75h-15.75l-6.75-4.25l-8.5,2l-6.5,0.5l-3.75-4.25l-7.75-4l-5,0.75l-4.5,2.5
	l-10.5-3.5l-7.5,7l-7.5,1.25l-3.75-4.5l-3.5-7.5l-9.5-4.25l-1.25-4.75l-3-6.25l-7.5-2l-7.75-0.5l-21.75,3.5l2.25-9.75l10.25-8l5-5
	l4.25-9l7.5-2l4.25-4.25l-0.25-6l6-1.5l4.75,1.5l5.25,3.5l13.5-1.25l17.25-2.25L317,264l13.25-0.75l17,3l16.25,1l8.5-6.5l6.75-7v-8
	l3.5-2.75l20,5.75l11.5,5.25l10.75,3.5l27.75,6.5l3,5.75l5,2.25l0.9,1.4c0.567,1.033,0.85,1.817,0.85,2.35
	c0,0.833-0.333,3.667-1,8.5l-3.25,4.75l1.25,4.75l5.25,2.25l11.25,1.75h7.5l8.75-3.25l7.25,0.75l4.25,3l1.5,5l5.75,2.5l-4.5,9.5
	l-13.5,1.25l-7.25,4l-0.5,3.75l0.75,7.5l6.25,5.5l4.5-1l2.25-2.75l3.75,2.5l10.5-0.5l3.75,6l-5,2.75l-5,5.75l3,9.5l4,0.75l1,3.25
	l0.5,3.75l4,1.5l-1.5,4.25l0.5,3.25l5.5,1.25l7.75-0.25L536,380l1.25,4l2,4.5l6,1L546,386l4-1.75l6.25,4.25l3.5-1l0.5-7L562,373
	l9-6.5l11.75-12.75l1.75-2.5l5.75,1.75l4.25-3.75l4-1.75l1-4.25l-1-5.25l6.75-0.25l6,0.75l3.75-2l5,1.25l5.25,2.25l5.5,1.5l5.5,3
	l3.25-3.25l4.75-1l4.75-2.75l6.25-3.75L664,332z M636,510.5l4-0.5l4,5.75l-4.5,4.5l-1.25,8.5L632,536.5l-4,2.75l0.5,5.25l-3.75,2.25
	l-2.75-6l-1-12.25l7.25-10L636,510.5z"/>
</svg>
