<?xml version="1.0" encoding="utf-8"?>
<!-- Generator: Adobe Illustrator 16.0.0, SVG Export Plug-In . SVG Version: 6.00 Build 0)  -->
<!DOCTYPE svg PUBLIC "-//W3C//DTD SVG 1.1//EN" "http://www.w3.org/Graphics/SVG/1.1/DTD/svg11.dtd">
<svg version="1.1" id="Selected_Items" xmlns="http://www.w3.org/2000/svg" xmlns:xlink="http://www.w3.org/1999/xlink" x="0px"
	 y="0px" width="1024px" height="680px" viewBox="0 0 1024 680" enable-background="new 0 0 1024 680" xml:space="preserve">
<path fill-rule="evenodd" clip-rule="evenodd" d="M656.15,440.35l-10.7,1.9l5,1.65l4.5,3.25l2.75,4.75l-1.75,4l-5.75,1.5l-4.5,4.5
	l6.25-0.25l2.25,2l0.25,3.75l-2,4l-2.75,4.25l-0.25,3.25l-2,4.5l-5.5,1.75l-3.5,2.5l-5.25,6.5l-2.5,5.25l-3.5,4.25l-4,2.75
	l-2.75,5.199l-4.75,2.75l-5.75,5.5l-5,3.75l-13.75,8.25l-4.75,1.5l-3.75,3h-8.25l-13.25,2.25l-5.25,1.5l-6.75,0.5l-3.25,3l-9.5-0.5
	h-9.5l-6,0.75l-0.5,3l0.55,0.5h0.025l1.925,1.75l-3,4l6.55,2.15l-1,3l-5.25,2l-1.5,3.75l-7.25,5.75L500,567.5l-2.75-5l2.75-7.25
	l9.5-2.75l4.75-3.25l0.125-2.125c0.045,0.001,0.087,0.001,0.125,0l0.95-5.025l-2.75-3.5l-5.5-0.5l-8.25-2.5l-5,1.25l-2.75,1.5
	l-3.75,0.051l-9.85,5.75l-5.5,7l0.5,8.5l3.5,7.5l-1.5,7l-3.25-7.051l-4.25-7.5l-3.25-9.5l3.75-11.5l-0.5-6.1L461,528l-5,4l-4-8.5
	l-6.5-1l-4,6.5l1,6l-7-3.5l1-7l-6.5,3l-5.25-1.25l0.25-5.5l-10-1l-1-7.75l1.75-7.5l4.75-3.5l-5-4.75l-4.5,1l-1,3l-7.25-5.5l-2-14
	l-1-17.25l2.5-9l5.75-1.25l5,2.5l2-6l4-1.5l2.5-3.5l1.5-3l3.75,3l1.25,3l6,2.75l4.5,5l0.25,7l0.75,3.5l7.25-8.75L453,462l3,7.5l6,3
	l-3,9l10-2.5v-9.5l5.5-5l5.5-4l4-7l14-1.5l10.5-5l9-3l8-1l8-7.5l3-8.5l6.95-2.5l9,1h16.5l7.5,3.5l6-3l4-6.5h18l12-1l9.5-2.95
	l9.5-2.899l5.5,3.5l5.75,8.75l0.75,7.25l5.05,5.05L656.15,440.35z M636,510.5l4-0.5l4,5.75l-4.5,4.5l-1.25,8.5L632,536.5l-4,2.75
	l0.5,5.25l-3.75,2.25l-2.75-6l-1-12.25l7.25-10L636,510.5z"/>
</svg>
