<?xml version="1.0" encoding="utf-8"?>
<!-- Generator: Adobe Illustrator 16.0.0, SVG Export Plug-In . SVG Version: 6.00 Build 0)  -->
<!DOCTYPE svg PUBLIC "-//W3C//DTD SVG 1.1//EN" "http://www.w3.org/Graphics/SVG/1.1/DTD/svg11.dtd">
<svg version="1.1" id="Selected_Items" xmlns="http://www.w3.org/2000/svg" xmlns:xlink="http://www.w3.org/1999/xlink" x="0px"
	 y="0px" width="1024px" height="680px" viewBox="0 0 1024 680" enable-background="new 0 0 1024 680" xml:space="preserve">
<path fill-rule="evenodd" clip-rule="evenodd" d="M636,510.5l4-0.5l4,5.75l-4.5,4.5l-1.25,8.5L632,536.5l-4,2.75l0.5,5.25
	l-3.75,2.25l-2.75-6l-1-12.25l7.25-10L636,510.5z M689.45,127l17,6.5l25.5,8.5l10,12.5l7,5.5l-6,11l-2,9l-10.5,3.5l5,4l-7,7l10-1
	l4,9l7-1l5-6.5l5,4.5l12.5-0.8l12,13.8l2,11l7,12l-2.2,20l7.2,19.5l-8.5,6.5l-16,5.5l-27.5,34l-9.5-0.5l-4.5-6.5
	c-2.334,2-4.5,3.5-6.5,4.5c-1.233,0.633-2.767,1.733-4.601,3.3l-7.899,6.7l-6,0.5l4.5,7l-11.5-3l-11.5,15l-10,7.85l-10.75,1.801
	l-5.25,3.25l-4.75,3.75l-6.75,3l3.25-10.75l2.75-2l5.25-7.75l-1.75-4.75l-7,0.5l-6.7,6.6l-7.3,3.65l-1.5,4.25l-3.25,2l-3.5-0.75
	l-6.25,0.5l-2,4l-0.25,4l2.5,4.25l7.75,0.75v4.5l-1.25,4l2.25,3l5.75-0.25l5.5-5.5l5.5-0.25l2.75,1.5l3.75,1.5l10.25-1l-2.75,3.5
	l-1.25,3.25l-3.25,1.75l-9.25,2.75l-2.25,4.25l-3,2.5l-4.75,2.5l-3.75,4.5l-3.5,5l1.75,3l5.5,3.5l5.75,8.75l0.75,7.25l5.05,5.05
	l3.65,3.149l-10.7,1.9l5,1.65l4.5,3.25l2.75,4.75l-1.75,4l-5.75,1.5l-4.5,4.5l6.25-0.25l2.25,2l0.25,3.75l-2,4l-2.75,4.25
	l-0.25,3.25l-2,4.5l-5.5,1.75l-3.5,2.5l-5.25,6.5l-2.5,5.25l-3.5,4.25l-4,2.75l-2.75,5.199l-4.75,2.75l-5.75,5.5l-5,3.75
	l-13.75,8.25l-4.75,1.5l-3.75,3h-8.25l-13.25,2.25l-5.25,1.5l-6.75,0.5l-3.25,3l-9.5-0.5h-9.5l-6,0.75l-0.5,3l0.55,0.5h0.025
	l1.925,1.75l-3,4l6.55,2.15l-1,3l-5.25,2l-1.5,3.75l-7.25,5.75L500,567.5l-2.75-5l2.75-7.25l9.5-2.75l4.75-3.25l0.125-2.125
	c0.045,0.001,0.087,0.001,0.125,0l0.95-5.025l-2.75-3.5l-5.5-0.5l-6.45-1.949l-8.5-1.7L489,531.7l1.5-5.25l2.25-2.75l-2.5-2
	l-3.5-0.5l-3.75-1.75l-0.5-3l-3.25-0.25l-7.75-3.7l-9,2.5l-6.5-1.5l-6.5,5.5l-4-6l-6.5,7.5l-6,3.5l-3.5-5l-7.5,3.5l-8,5.5l-5.5-1.3
	l1-15.7l2-12.5L411,488l-10.5-1.5l3.5-11l-1-8l3.5-10.5l1.5-17l-7.5-8h-11l-15,7.7c-2.167-0.101-4.433-0.2-6.8-0.3
	c-4.767-0.134-7.667-0.101-8.7,0.1s-3.85-1.066-8.45-3.8l-6.55-4.2l-19-6.5l-11-5.5l-6-13.5l-12-4.5L285,383l-11.5-15l-13.15-4.5
	l-3.1-10l-7.75-7.5v-8l-11.5-3.5l2-12.5l-9.5-16.5l2-16l4-7.5l7-5l2.5,7.5l6.5,5l6.5,2v7.5l3.5,7.5L274,309l2-8.5l7-4.5l5.5,3
	l6.5-2.5l7.5,1l7.5,4l6.5,6.5l13-3.5l23.5,7l2,9.5l1,0.15l8-1.15l16.5-5l20.5,15.5l13.5,4l6.5,1.5l11.5,7.5l29,1l6.5-4.5l-3.5-10.5
	l-20-18.5l3.5-11.5l10,3l8,8l8,10l8.45,6.5l8.5-3l-6.45,7.5l1.25,15.75L488,357.5l4.5,1.75l2.25-3.5l5-1.25l-4.25-5.5l-0.5-4.5
	l19-0.5l-1.75-15.5l8-6.75l3.75,1.5l-4.75,12.25l0.25,4.5l14.5,14.25l5.25,1l7.25-8l6.75-2l8.5-9.5L571,335l4.25-7.25l13.5,1.5
	l6.5-5.25H601l3-3.75l4.25,4.25l1,5.75l10.25-0.75l-3,6.25l3,2.25l6.5-2.25l3.5,5h9.5l15.25-15.5l4.25,0.25l3,10.75l6.25-12h4.5
	l1-14.5l7.5-12.25v-14.25L669,262.75l5.5-14.25l3.25-17.75l0.75-24l-12.75-3.5l-17.25-9.75l-2.25-16.75l-24.5-32.5l-4.8-2.85
	l7.5-13.4l3-14.5l-1.5-7.5l12.5-1.5l19.5,9.5C677.283,122.333,687.783,126.667,689.45,127z"/>
</svg>
