<?xml version="1.0" encoding="utf-8"?>
<!-- Generator: Adobe Illustrator 16.0.0, SVG Export Plug-In . SVG Version: 6.00 Build 0)  -->
<!DOCTYPE svg PUBLIC "-//W3C//DTD SVG 1.1//EN" "http://www.w3.org/Graphics/SVG/1.1/DTD/svg11.dtd">
<svg version="1.1" id="Selected_Items" xmlns="http://www.w3.org/2000/svg" xmlns:xlink="http://www.w3.org/1999/xlink" x="0px"
	 y="0px" width="1024px" height="680px" viewBox="0 0 1024 680" enable-background="new 0 0 1024 680" xml:space="preserve">
<path fill-rule="evenodd" clip-rule="evenodd" d="M514.375,547.125c0.045,0.001,0.087,0.001,0.125,0l0.95-5.025l-2.75-3.5l-5.5-0.5
	l-6.45-1.949l-8.5-1.7L489,531.7l1.5-5.25l2.25-2.75l-2.5-2l-3.5-0.5l-3.75-1.75l-0.5-3l-3.25-0.25l-3.25-1.55l-11,7.85h-10.5
	l-5.5,7l-12.5-4l-8-5.5l-6-2.5l3-11L418,503l1-11l-7.5,1l1-12l1.5-8l11-6.5l5.5-4l-1-9l-3.5-8l-5,3.5l-6.5,1l-3.5-10h-13.5l-13,6.5
	L370,446l-7.5-6.675c-1.754,0.004-2.92,0.063-3.5,0.175c-1.033,0.2-3.85-1.066-8.45-3.8l-6.55-4.2l-19-6.5l-11-5.5l-6-13.5l-12-4.5
	L285,383l-11.5-15l-13.15-4.5l-3.1-10l-7.75-7.5v-8l-11.5-3.5l2-12.5l-9.5-16.5l2-16l4-7.5l-6-9.5l3.5-6l-1.5-6l-8-6.5l-9.5,5.5
	l-12-0.5l7.5-11.5l6-7.5l-3.5-10.5l7.5-3L220,220l6-8l8-1l1.5-10.5l5-6.5l-11-3.5L223,185l-4.5-18.5l7-10.5l16.5-9.5l33-17.5l8.5-3
	l20.5,9l9.5-2.5l3-9.5l9,1l12.5-8.5l5.5-11l9.5-15l14.5-1.5l11-9l14,2l17,11.5l4.5,7.5l4.5,10l10.5-1.5l-4.5-6.5l6.5-4l2-7.5l10.5,4
	l10-0.5l6.5,6.5l8.5,6.5l3,9.5l6,6.5l8.95,3.5l8.5,11.5l3.5,11l7.5,6l13,2l11.5,2.5l7.5,8.5l7,12l6.5,4.5h16l15.5-9l6,4.5l11.5,6
	l6,6.5l8.5,5l4-6l-0.5-9l1.5-14l-7-9l6-6l-10.5-1.5l-2.5-11l9-9l10.5-4l5-18l11,3l3.5,8l6.5-4l8.5,1l1,10.5l2.8-2.25
	c2.1-1.5,3.667-2.25,4.7-2.25c1.666,0,6.333,1.5,14,4.5l5,14.5l21,3l17.5,0.5l8.5,7.5l7.5,9.5l2.5,5.5l-2.4,6l-1.1,5l-10.5,3.5l5,4
	l-7,7l10-1l4,9l7-1l5-6.5l5,4.5l12.5-0.8l12,13.8l2,11l5.5,9.425l1.5,2.575l-0.05,0.5l-2.15,19.5l7.2,19.5l-8.5,6.5l-16,5.5
	l-27.5,34l-9.5-0.5l-4.5-6.5c-2.334,2-4.5,3.5-6.5,4.5c-1.233,0.633-2.767,1.733-4.601,3.3l-7.899,6.7l-6,0.5l4.5,7l-11.5-3
	l-11.5,15l-10,7.85l-10.75,1.801l-5.25,3.25l-4.75,3.75l-6.75,3l3.25-10.75l2.75-2l5.25-7.75l-1.75-4.75l-7,0.5l-6.7,6.6l-7.3,3.65
	l-1.5,4.25l-3.25,2l-3.5-0.75l-6.25,0.5l-2,4l-0.25,4l2.5,4.25l7.75,0.75v4.5l-1.25,4l2.25,3l5.75-0.25l5.5-5.5l5.5-0.25l2.75,1.5
	l3.75,1.5l10.25-1l-2.75,3.5l-1.25,3.25l-3.25,1.75l-9.25,2.75l-2.25,4.25l-3,2.5l-4.75,2.5l-3.75,4.5l-3.5,5l1.75,3l5.5,3.5
	l5.75,8.75l0.75,7.25l5.05,5.05l3.65,3.149l-10.7,1.9l5,1.65l4.5,3.25l2.75,4.75l-1.75,4l-5.75,1.5l-4.5,4.5l6.25-0.25l2.25,2
	l0.25,3.75l-2,4l-2.75,4.25l-0.25,3.25l-2,4.5l-5.5,1.75l-3.5,2.5l-5.25,6.5l-2.5,5.25l-3.5,4.25l-4,2.75l-2.75,5.199l-4.75,2.75
	l-5.75,5.5l-5,3.75l-13.75,8.25l-4.75,1.5l-3.75,3h-8.25l-13.25,2.25l-5.25,1.5l-6.75,0.5l-3.25,3l-9.5-0.5h-9.5l-6,0.75l-0.5,3
	l0.55,0.5h0.025l1.925,1.75l-3,4l6.55,2.15l-1,3l-5.25,2l-1.5,3.75l-7.25,5.75L500,567.5l-2.75-5l2.75-7.25l9.5-2.75l4.75-3.25
	l0.025-0.35l-0.075-0.051l0.1-0.6L514.375,547.125z M514.275,548.9l0.024-0.65L514.275,548.9z M636,510.5l4-0.5l4,5.75l-4.5,4.5
	l-1.25,8.5L632,536.5l-4,2.75l0.5,5.25l-3.75,2.25l-2.75-6l-1-12.25l7.25-10L636,510.5z"/>
<path fill-rule="evenodd" clip-rule="evenodd" fill="none" stroke="#00FFFF" stroke-width="5" stroke-linecap="round" stroke-linejoin="round" stroke-miterlimit="3" d="
	M515.45,542.1l-2.75-3.5l-5.5-0.5l-6.45-1.949l-8.5-1.7L489,531.7l1.5-5.25l2.25-2.75l-2.5-2l-3.5-0.5l-3.75-1.75l-0.5-3l-3.25-0.25
	l-3.25-1.55l-11,7.85h-10.5l-5.5,7l-12.5-4l-8-5.5l-6-2.5l3-11L418,503l1-11l-7.5,1l1-12l1.5-8l11-6.5l5.5-4l-1-9l-3.5-8l-5,3.5
	l-6.5,1l-3.5-10h-13.5l-13,6.5L370,446l-7.5-6.675c-1.754,0.004-2.92,0.063-3.5,0.175c-1.033,0.2-3.85-1.066-8.45-3.8l-6.55-4.2
	l-19-6.5l-11-5.5l-6-13.5l-12-4.5L285,383l-11.5-15l-13.15-4.5l-3.1-10l-7.75-7.5v-8l-11.5-3.5l2-12.5l-9.5-16.5l2-16l4-7.5l-6-9.5
	l3.5-6l-1.5-6l-8-6.5l-9.5,5.5l-12-0.5l7.5-11.5l6-7.5l-3.5-10.5l7.5-3L220,220l6-8l8-1l1.5-10.5l5-6.5l-11-3.5L223,185l-4.5-18.5
	l7-10.5l16.5-9.5l33-17.5l8.5-3l20.5,9l9.5-2.5l3-9.5l9,1l12.5-8.5l5.5-11l9.5-15l14.5-1.5l11-9l14,2l17,11.5l4.5,7.5l4.5,10
	l10.5-1.5l-4.5-6.5l6.5-4l2-7.5l10.5,4l10-0.5l6.5,6.5l8.5,6.5l3,9.5l6,6.5l8.95,3.5l8.5,11.5l3.5,11l7.5,6l13,2l11.5,2.5l7.5,8.5
	l7,12l6.5,4.5h16l15.5-9l6,4.5l11.5,6l6,6.5l8.5,5l4-6l-0.5-9l1.5-14l-7-9l6-6l-10.5-1.5l-2.5-11l9-9l10.5-4l5-18l11,3l3.5,8l6.5-4
	l8.5,1l1,10.5l2.8-2.25c2.1-1.5,3.667-2.25,4.7-2.25c1.666,0,6.333,1.5,14,4.5l5,14.5l21,3l17.5,0.5l8.5,7.5l7.5,9.5l2.5,5.5l-2.4,6
	l-1.1,5l-10.5,3.5l5,4l-7,7l10-1l4,9l7-1l5-6.5l5,4.5l12.5-0.8l12,13.8l2,11l5.5,9.425l1.5,2.575l-0.05,0.5l-2.15,19.5l7.2,19.5
	l-8.5,6.5l-16,5.5l-27.5,34l-9.5-0.5l-4.5-6.5l-1,1.925 M731.95,314c-2.334,2-4.5,3.5-6.5,4.5c-1.233,0.633-2.767,1.733-4.601,3.3
	l-7.899,6.7l-6,0.5l4.5,7l-11.5-3l-11.5,15l-10,7.85l-10.75,1.801l-5.25,3.25l-4.75,3.75l-6.75,3l3.25-10.75l2.75-2l5.25-7.75
	l-1.75-4.75l-7,0.5l-6.7,6.6l-7.3,3.65l-1.5,4.25l-3.25,2l-3.5-0.75l-6.25,0.5l-2,4l-0.25,4l2.5,4.25l7.75,0.75v4.5l-1.25,4l2.25,3
	l5.75-0.25l5.5-5.5l5.5-0.25l2.75,1.5l3.75,1.5l10.25-1l-2.75,3.5l-1.25,3.25l-3.25,1.75l-9.25,2.75l-2.25,4.25l-3,2.5l-4.75,2.5
	l-3.75,4.5l-3.5,5l1.75,3l5.5,3.5l5.75,8.75l0.75,7.25l5.05,5.05l3.65,3.149l-10.7,1.9l5,1.65l4.5,3.25l2.75,4.75l-1.75,4l-5.75,1.5
	l-4.5,4.5l6.25-0.25l2.25,2l0.25,3.75l-2,4l-2.75,4.25l-0.25,3.25l-2,4.5l-5.5,1.75l-3.5,2.5l-5.25,6.5l-2.5,5.25l-3.5,4.25l-4,2.75
	l-2.75,5.199l-4.75,2.75l-5.75,5.5l-5,3.75l-13.75,8.25l-4.75,1.5l-3.75,3h-8.25l-13.25,2.25l-5.25,1.5l-6.75,0.5l-3.25,3l-9.5-0.5
	h-9.5l-6,0.75l-0.5,3l0.55,0.5 M522.95,549.1l-3,4l6.55,2.15l-1,3l-5.25,2l-1.5,3.75l-7.25,5.75L500,567.5l-2.75-5l2.75-7.25
	l9.5-2.75l4.75-3.25l0.025-0.35l-0.075-0.051l0.1-0.6l0.075-1.125l1.075-5.025 M514.275,548.9l0.024-0.65 M636,510.5l-7.75,8
	l-7.25,10l1,12.25l2.75,6l3.75-2.25l-0.5-5.25l4-2.75l6.25-7.75l1.25-8.5l4.5-4.5l-4-5.75L636,510.5z"/>
</svg>
