<?xml version="1.0" encoding="utf-8"?>
<!-- Generator: Adobe Illustrator 16.0.0, SVG Export Plug-In . SVG Version: 6.00 Build 0)  -->
<!DOCTYPE svg PUBLIC "-//W3C//DTD SVG 1.1//EN" "http://www.w3.org/Graphics/SVG/1.1/DTD/svg11.dtd">
<svg version="1.1" id="Selected_Items" xmlns="http://www.w3.org/2000/svg" xmlns:xlink="http://www.w3.org/1999/xlink" x="0px"
	 y="0px" width="1024px" height="680px" viewBox="0 0 1024 680" enable-background="new 0 0 1024 680" xml:space="preserve">
<polygon fill-rule="evenodd" clip-rule="evenodd" points="650.95,390.9 648.7,395.15 645.7,397.65 640.95,400.15 637.2,404.65 
	633.7,409.65 635.45,412.65 640.95,416.15 641.6,417.15 643.15,425.1 634.15,431.1 621.65,432.6 615.15,438.6 605.15,445.6 
	597.65,441.1 583.65,440.6 571.65,436.6 566.15,428.6 547.15,419.6 531.65,415.6 523.15,410.1 514.65,405.6 520.15,403.1 
	528.65,394.6 536.65,396.1 544.65,395.1 551.15,392.1 559.65,389.6 565.15,384.6 572.15,377.1 581.15,376.1 587.15,379.6 
	593.65,373.6 598.65,366.6 601.65,361.05 611.15,359.05 619.65,360.05 622.7,367.15 625.2,371.4 632.95,372.15 632.95,376.65 
	631.7,380.65 633.95,383.65 639.7,383.4 645.2,377.9 650.7,377.65 653.45,379.15 657.2,380.65 667.45,379.65 664.7,383.15 
	663.45,386.4 660.2,388.15 "/>
<polygon fill-rule="evenodd" clip-rule="evenodd" fill="none" stroke="#00FFFF" stroke-width="5" stroke-linecap="round" stroke-linejoin="round" stroke-miterlimit="3" points="
	650.95,390.9 660.2,388.15 663.45,386.4 664.7,383.15 667.45,379.65 657.2,380.65 653.45,379.15 650.7,377.65 645.2,377.9 
	639.7,383.4 633.95,383.65 631.7,380.65 632.95,376.65 632.95,372.15 625.2,371.4 622.7,367.15 619.65,360.05 611.15,359.05 
	601.65,361.05 598.65,366.6 593.65,373.6 587.15,379.6 581.15,376.1 572.15,377.1 565.15,384.6 559.65,389.6 551.15,392.1 
	544.65,395.1 536.65,396.1 528.65,394.6 520.15,403.1 514.65,405.6 523.15,410.1 531.65,415.6 547.15,419.6 566.15,428.6 
	571.65,436.6 583.65,440.6 597.65,441.1 605.15,445.6 615.15,438.6 621.65,432.6 634.15,431.1 643.15,425.1 641.6,417.15 
	640.95,416.15 635.45,412.65 633.7,409.65 637.2,404.65 640.95,400.15 645.7,397.65 648.7,395.15 "/>
</svg>
