<?xml version="1.0" encoding="utf-8"?>
<!-- Generator: Adobe Illustrator 16.0.0, SVG Export Plug-In . SVG Version: 6.00 Build 0)  -->
<!DOCTYPE svg PUBLIC "-//W3C//DTD SVG 1.1//EN" "http://www.w3.org/Graphics/SVG/1.1/DTD/svg11.dtd">
<svg version="1.1" id="Selected_Items" xmlns="http://www.w3.org/2000/svg" xmlns:xlink="http://www.w3.org/1999/xlink" x="0px"
	 y="0px" width="1024px" height="680px" viewBox="0 0 1024 680" enable-background="new 0 0 1024 680" xml:space="preserve">
<path fill-rule="evenodd" clip-rule="evenodd" d="M514.375,547.125c0.045,0.001,0.087,0.001,0.125,0l0.95-5.025l-2.75-3.5l-5.5-0.5
	l-8.25-2.5l-5,1.25l-2.75,1.5l-3.75,0.051l-9.85,5.75l-5.5,7l0.5,8.5l3.5,7.5l-1.5,7l-3.25-7.051l-4.25-7.5l-3.25-9.5l3.75-11.5
	l-0.75-9l-5.9-9.199l3.55-0.65l3,1.5l3,2.75l2.75-3.75l4.5,0.5l2.5-5l3.75-1l2.75,5.25l7,3.5l2-16.75l1.75,2.75l6.5-0.25l-1-5.25
	l-3.5-3.5l-5.25-0.75l-2.25-12l10.75-9.5l-5.5-10.75l-10.75-6l-2.25,2.5l-2.5,6l-5.75,2.75l-1-9l-4.5,4l-2.25,10.5l-3-1.25l-2,2.25
	l-3.75,1l2-9.25l-4.5,0.75l-0.75-7.5L460,462l2.5-5.75L466,450l6.25-0.5l0.25-3.5l-1.75-6.25l3.75-5.5l5.25-3.5l5.5-5.5l-2.25-9
	l-1.5-9L486,412l4-5.5l-1.75-12l-2.25-5.75l-5.5,2V399l-3.5-2.5l-4.25-5.5l-8.75-7l-3.75-6.75l-7-4l-6.5-2.25l1,6.25L437,373.5
	l-5-8.5l-9-5.5l-7-3.5l-7-10l-17-9l-17-4l-8-6l-7.5-4l-6,2l-18.5,1l-7.5-10.5l0.5-14l3-15l8-6.5l14,1.5l16.5-0.5l6-5.5h8.5l12.5,4
	l1-9L400,260l9-0.5l17,9l44.5,17.5l19.95,5l3,11.5l-5.5,7l-2.5,10l5,9l21-5.5l7.5,11.5l6-5.5l2.5-13l5-6.5l14-3l32.5,4l10.5-1.5h24
	l-8,21.5l5.5,6.5l8.5,1l7,5l11.5,4l8.8,2.5l-7.3,3.65l-1.5,4.25l-3.25,2l-3.5-0.75l-6.25,0.5l-2,4l-0.25,4l2.5,4.25l7.75,0.75v4.5
	l-1.25,4l2.25,3l5.75-0.25l5.5-5.5l5.5-0.25l2.75,1.5l3.75,1.5l10.25-1l-2.75,3.5l-1.25,3.25l-3.25,1.75l-9.25,2.75l-2.25,4.25
	l-3,2.5l-4.75,2.5l-3.75,4.5l-3.5,5l1.75,3l5.5,3.5l5.75,8.75l0.75,7.25l5.05,5.05l3.65,3.149l-10.7,1.9l5,1.65l4.5,3.25l2.75,4.75
	l-1.75,4l-5.75,1.5l-4.5,4.5l6.25-0.25l2.25,2l0.25,3.75l-2,4l-2.75,4.25l-0.25,3.25l-2,4.5l-5.5,1.75l-3.5,2.5l-5.25,6.5l-2.5,5.25
	l-3.5,4.25l-4,2.75l-2.75,5.199l-4.75,2.75l-5.75,5.5l-5,3.75l-13.75,8.25l-4.75,1.5l-3.75,3h-8.25l-13.25,2.25l-5.25,1.5l-6.75,0.5
	l-3.25,3l-9.5-0.5h-9.5l-6,0.75l-0.5,3l0.55,0.5h0.025l0.949,0.875c0.329,0.293,0.653,0.585,0.976,0.875l-3,4l6.55,2.15l-1,3
	l-5.25,2l-1.5,3.75l-7.25,5.75L500,567.5l-2.75-5l2.75-7.25l9.5-2.75l4.75-3.25l0.025-0.35l-0.075-0.051l0.1-0.6
	C514.327,547.875,514.352,547.5,514.375,547.125z M514.275,548.9l0.024-0.65L514.275,548.9z M636,510.5l4-0.5l4,5.75l-4.5,4.5
	l-1.25,8.5L632,536.5l-4,2.75l0.5,5.25l-3.75,2.25l-2.75-6l-1-12.25l7.25-10L636,510.5z"/>
<path fill-rule="evenodd" clip-rule="evenodd" fill="none" stroke="#00FFFF" stroke-width="5" stroke-linecap="round" stroke-linejoin="round" stroke-miterlimit="3" d="
	M515.45,542.1l-2.75-3.5l-5.5-0.5l-8.25-2.5l-5,1.25l-2.75,1.5l-3.75,0.051l-9.85,5.75l-5.5,7l0.5,8.5l3.5,7.5l-1.5,7l-3.25-7.051
	l-4.25-7.5l-3.25-9.5l3.75-11.5l-0.75-9l-5.9-9.199l3.55-0.65l3,1.5l3,2.75l2.75-3.75l4.5,0.5l2.5-5l3.75-1l2.75,5.25l7,3.5l2-16.75
	l1.75,2.75l6.5-0.25l-1-5.25l-3.5-3.5l-5.25-0.75l-2.25-12l10.75-9.5l-5.5-10.75l-10.75-6l-2.25,2.5l-2.5,6l-5.75,2.75l-1-9l-4.5,4
	l-2.25,10.5l-3-1.25l-2,2.25l-3.75,1l2-9.25l-4.5,0.75l-0.75-7.5L460,462l2.5-5.75L466,450l6.25-0.5l0.25-3.5l-1.75-6.25l3.75-5.5
	l5.25-3.5l5.5-5.5l-2.25-9l-1.5-9L486,412l4-5.5l-1.75-12l-2.25-5.75l-5.5,2V399l-3.5-2.5l-4.25-5.5l-8.75-7l-3.75-6.75l-7-4
	l-6.5-2.25l1,6.25L437,373.5l-5-8.5l-9-5.5l-7-3.5l-7-10l-17-9l-17-4l-8-6l-7.5-4l-6,2l-18.5,1l-7.5-10.5l0.5-14l3-15l8-6.5l14,1.5
	l16.5-0.5l6-5.5h8.5l12.5,4l1-9L400,260l9-0.5l17,9l44.5,17.5l19.95,5l3,11.5l-5.5,7l-2.5,10l5,9l21-5.5l7.5,11.5l6-5.5l2.5-13
	l5-6.5l14-3l32.5,4l10.5-1.5h24l-8,21.5l5.5,6.5l8.5,1l7,5l11.5,4l8.8,2.5l-7.3,3.65l-1.5,4.25l-3.25,2l-3.5-0.75l-6.25,0.5l-2,4
	l-0.25,4l2.5,4.25l7.75,0.75v4.5l-1.25,4l2.25,3l5.75-0.25l5.5-5.5l5.5-0.25l2.75,1.5l3.75,1.5l10.25-1l-2.75,3.5l-1.25,3.25
	l-3.25,1.75l-9.25,2.75l-2.25,4.25l-3,2.5l-4.75,2.5l-3.75,4.5l-3.5,5l1.75,3l5.5,3.5l5.75,8.75l0.75,7.25l5.05,5.05l3.65,3.149
	l-10.7,1.9l5,1.65l4.5,3.25l2.75,4.75l-1.75,4l-5.75,1.5l-4.5,4.5l6.25-0.25l2.25,2l0.25,3.75l-2,4l-2.75,4.25l-0.25,3.25l-2,4.5
	l-5.5,1.75l-3.5,2.5l-5.25,6.5l-2.5,5.25l-3.5,4.25l-4,2.75l-2.75,5.199l-4.75,2.75l-5.75,5.5l-5,3.75l-13.75,8.25l-4.75,1.5
	l-3.75,3h-8.25l-13.25,2.25l-5.25,1.5l-6.75,0.5l-3.25,3l-9.5-0.5h-9.5l-6,0.75l-0.5,3l0.55,0.5 M522.95,549.1l-3,4l6.55,2.15l-1,3
	l-5.25,2l-1.5,3.75l-7.25,5.75L500,567.5l-2.75-5l2.75-7.25l9.5-2.75l4.75-3.25l0.025-0.35l-0.075-0.051l0.1-0.6
	c0.027-0.375,0.052-0.75,0.075-1.125l1.075-5.025 M514.275,548.9l0.024-0.65 M636,510.5l-7.75,8l-7.25,10l1,12.25l2.75,6l3.75-2.25
	l-0.5-5.25l4-2.75l6.25-7.75l1.25-8.5l4.5-4.5l-4-5.75L636,510.5z"/>
</svg>
