<?xml version="1.0" encoding="utf-8"?>
<!-- Generator: Adobe Illustrator 16.0.0, SVG Export Plug-In . SVG Version: 6.00 Build 0)  -->
<!DOCTYPE svg PUBLIC "-//W3C//DTD SVG 1.1//EN" "http://www.w3.org/Graphics/SVG/1.1/DTD/svg11.dtd">
<svg version="1.1" id="Selected_Items" xmlns="http://www.w3.org/2000/svg" xmlns:xlink="http://www.w3.org/1999/xlink" x="0px"
	 y="0px" width="1024px" height="680px" viewBox="0 0 1024 680" enable-background="new 0 0 1024 680" xml:space="preserve">
<path fill-rule="evenodd" clip-rule="evenodd" d="M684.45,167.5l30.5,7.5l9,7l6.5,1.5l5,4l-2.5,8.5l-0.5,14.5l-5,4l-8.5,0.5
	l-16,21.5l-2.5,14l-0.5,9.5h-8.5l-3.5,7.5l7.5,15l-7,5.5h-6.5l-3,17.5l-4,5l1,7.5l7.5,5.5l0.5,16l3,7.5l10,6l6,2l-8,7l-5,8.25
	l-7.75,5.5l-1.05-5.8l1.75-8.55l-3.25-5.75l-11.95,2l-5.25,3.25l-4.75,3.75l-6.75,3l3.25-10.75l2.75-2l5.25-7.75l-1.75-4.75l-7,0.5
	l-6.7,6.6l-7.3,3.65l-1.5,4.25l-3.25,2l-3.5-0.75l-6.25,0.5l-2,4l-0.25,4l2.5,4.25l7.75,0.75v4.5l-1.25,4l2.25,3l5.75-0.25l5.5-5.5
	l5.5-0.25l2.75,1.5l3.75,1.5l10.25-1l-2.75,3.5l-1.25,3.25l-3.25,1.75l-9.25,2.75l-2.25,4.25l-3,2.5l-4.75,2.5l-3.75,4.5l-3.5,5
	l1.75,3l5.5,3.5l5.75,8.75l0.75,7.25l5.05,5.05l3.65,3.149l-10.7,1.9l5,1.65l4.5,3.25l2.75,4.75l-1.75,4l-5.75,1.5l-4.5,4.5
	l6.25-0.25l2.25,2l0.25,3.75l-2,4l-2.75,4.25l-0.25,3.25l-2,4.5l-5.5,1.75l-3.5,2.5l-5.25,6.5l-2.5,5.25l-3.5,4.25l-4,2.75
	l-2.75,5.199l-4.75,2.75l-5.75,5.5l-5,3.75l-13.75,8.25l-4.75,1.5l-3.75,3h-8.25l-13.25,2.25l-5.25,1.5l-6.75,0.5l-3.25,3l-9.5-0.5
	h-9.5l-6,0.75l-0.5,3l0.55,0.5h0.025l1.925,1.75l-3,4l6.55,2.15l-1,3l-5.25,2l-1.5,3.75l-7.25,5.75L500,567.5l-2.75-5l2.75-7.25
	l9.5-2.75l4.75-3.25l0.125-2.125c0.045,0.001,0.087,0.001,0.125,0l0.95-5.025l-2.75-3.5l-5.5-0.5l-8.25-2.5l-5,1.25l-2.75,1.5
	l-3.75,0.051l-9.85,5.75l-5.5,7l0.5,8.5l3.5,7.5l-0.825,3.774L471.5,567.7l-5.75-0.75l-10.25-5.25l1.75-6.5l5.1-2.25l3.15-5.7
	l5-5.25l-1.5-8l-7-2.5l-5.5-6.5l-4.5-9.5l6-1l7,5l5-4l5.5,3l6-3.5l-1.5-6.5v-10l4-7.5l5-4l-3-5.5l4-9.5h-9.5l-12.25-2.5l-2.25-7
	l3.75-3.5l0.25-4.5l2-6.5l0.5-8.5l6.5-4.5l6.5-0.25l2.75-5l6-3.5l7.25-12l4,2.25l6.5-1.5l6-5l-3.5-7.5l6.5-12l12.5-19L530,363
	l1.5-11l0.5-22l-0.5-11l11.5-3.5l21.5-4.5l21-2.5l24-4l7.45-12.5l2-16l-1.601-11.5l9.15-26.75l3-11.25l6.25-10.5L626,189.25
	l4.75-14.75l-6.8-20.5l21,3.5l18,6.5L684.45,167.5z M636,510.5l4-0.5l4,5.75l-4.5,4.5l-1.25,8.5L632,536.5l-4,2.75l0.5,5.25
	l-3.75,2.25l-2.75-6l-1-12.25l7.25-10L636,510.5z"/>
</svg>
