<?xml version="1.0" encoding="utf-8"?>
<!-- Generator: Adobe Illustrator 16.0.0, SVG Export Plug-In . SVG Version: 6.00 Build 0)  -->
<!DOCTYPE svg PUBLIC "-//W3C//DTD SVG 1.1//EN" "http://www.w3.org/Graphics/SVG/1.1/DTD/svg11.dtd">
<svg version="1.1" id="Selected_Items" xmlns="http://www.w3.org/2000/svg" xmlns:xlink="http://www.w3.org/1999/xlink" x="0px"
	 y="0px" width="1024px" height="680px" viewBox="0 0 1024 680" enable-background="new 0 0 1024 680" xml:space="preserve">
<polygon fill-rule="evenodd" clip-rule="evenodd" points="663.15,324.05 673.2,333.05 676.2,346.55 675.7,355.85 667.7,357.65 
	662.45,360.9 657.7,364.65 650.95,367.65 654.2,356.9 656.95,354.9 659.95,349.9 662.2,347.15 660.45,342.4 653.45,342.9 
	648.45,348.65 639.45,353.15 637.95,357.4 634.7,359.4 631.2,358.65 624.95,359.15 622.95,363.15 622.7,367.15 625.2,371.4 
	632.95,372.15 632.95,376.65 631.7,380.65 633.95,383.65 639.7,383.4 645.2,377.9 650.7,377.65 653.45,379.15 657.2,380.65 
	667.45,379.65 664.7,383.15 663.45,386.4 660.2,388.15 650.95,390.9 648.7,395.15 645.7,397.65 640.95,400.15 637.2,404.65 
	633.7,409.65 635.45,412.65 640.95,416.15 646.7,424.9 647.45,432.15 652.5,437.2 656.15,440.35 645.45,442.25 650.45,443.9 
	654.95,447.15 657.7,451.9 655.95,455.9 650.2,457.4 645.7,461.9 651.95,461.65 654.2,463.65 654.45,467.4 652.45,471.4 
	649.7,475.65 649.45,478.9 647.45,483.4 641.95,485.15 638.45,487.65 633.2,494.15 630.7,499.4 627.2,503.65 623.2,506.4 
	620.45,511.6 615.7,514.35 609.95,519.85 604.95,523.6 591.2,531.85 586.45,533.35 582.7,536.35 574.45,536.35 561.2,538.6 
	555.95,540.1 549.2,540.6 545.95,543.6 536.45,543.1 526.95,543.1 520.95,543.85 520.45,546.85 522.95,549.1 519.95,553.1 
	517.2,551.35 514.2,548.85 515.45,542.1 512.7,538.6 507.2,538.1 498.95,535.6 493.95,536.85 482.65,531.15 481.15,524.15 
	487.65,515.15 491.15,503.15 485.65,497.15 481.65,486.65 472.65,473.65 466.15,459.65 469.65,452.15 472.15,432.15 481.15,410.6 
	491.15,410.6 501.15,408.6 509.15,410.6 519.65,407.6 526.65,401.1 532.15,392.1 540.15,387.6 548.15,387.6 555.65,383.1 
	559.65,375.1 561.65,364.55 568.15,355.05 576.15,359.05 586.15,353.05 601.15,358.05 617.15,345.05 626.7,328.95 640.15,324.05 
	651.15,321.05 "/>
<polygon fill-rule="evenodd" clip-rule="evenodd" fill="none" stroke="#00FFFF" stroke-width="5" stroke-linecap="round" stroke-linejoin="round" stroke-miterlimit="3" points="
	663.15,324.05 651.15,321.05 640.15,324.05 626.7,328.95 617.15,345.05 601.15,358.05 586.15,353.05 576.15,359.05 568.15,355.05 
	561.65,364.55 559.65,375.1 555.65,383.1 548.15,387.6 540.15,387.6 532.15,392.1 526.65,401.1 519.65,407.6 509.15,410.6 
	501.15,408.6 491.15,410.6 481.15,410.6 472.15,432.15 469.65,452.15 466.15,459.65 472.65,473.65 481.65,486.65 485.65,497.15 
	491.15,503.15 487.65,515.15 481.15,524.15 482.65,531.15 493.95,536.85 498.95,535.6 507.2,538.1 512.7,538.6 515.45,542.1 
	514.2,548.85 517.2,551.35 519.95,553.1 522.95,549.1 520.45,546.85 520.95,543.85 526.95,543.1 536.45,543.1 545.95,543.6 
	549.2,540.6 555.95,540.1 561.2,538.6 574.45,536.35 582.7,536.35 586.45,533.35 591.2,531.85 604.95,523.6 609.95,519.85 
	615.7,514.35 620.45,511.6 623.2,506.4 627.2,503.65 630.7,499.4 633.2,494.15 638.45,487.65 641.95,485.15 647.45,483.4 
	649.45,478.9 649.7,475.65 652.45,471.4 654.45,467.4 654.2,463.65 651.95,461.65 645.7,461.9 650.2,457.4 655.95,455.9 
	657.7,451.9 654.95,447.15 650.45,443.9 645.45,442.25 656.15,440.35 652.5,437.2 647.45,432.15 646.7,424.9 640.95,416.15 
	635.45,412.65 633.7,409.65 637.2,404.65 640.95,400.15 645.7,397.65 648.7,395.15 650.95,390.9 660.2,388.15 663.45,386.4 
	664.7,383.15 667.45,379.65 657.2,380.65 653.45,379.15 650.7,377.65 645.2,377.9 639.7,383.4 633.95,383.65 631.7,380.65 
	632.95,376.65 632.95,372.15 625.2,371.4 622.7,367.15 622.95,363.15 624.95,359.15 631.2,358.65 634.7,359.4 637.95,357.4 
	639.45,353.15 648.45,348.65 653.45,342.9 660.45,342.4 662.2,347.15 659.95,349.9 656.95,354.9 654.2,356.9 650.95,367.65 
	657.7,364.65 662.45,360.9 667.7,357.65 675.7,355.85 676.2,346.55 673.2,333.05 "/>
</svg>
